{
    "name": "m1034940/drupalci-automated-code-review",
    "description": "Drupal automated code review.",
    "type": "project",
    "license": "MTE",
    "authors": [
        {
            "name": "Aryashree Pritikrishna",
            "email": "aryashree.pritikrishna@mindtree.com"
        }
    ],
	"config": {
	  "vendor-dir": "vendor"
	},
	"minimum-stability": "dev",
	"prefer-stable": true,
    "require": {
    "php": ">=5.2.5",
    "ext-gd": "*",
    "ext-xml": "*",
    "ext-json": "*",
    "ext-openssl": "*",
    "ext-curl": "*",
    "ext-pdo": "*",
    "squizlabs/php_codesniffer": "2.9.0",
    "composer/installers": "~1.0",
    "drush/drush": "~8.0"
  },
  "require-dev": {
    "phpunit/phpunit": "~4.8",
    "symfony/css-selector": "~2.8",
    "drupal/coder": "8.2"
  }
}
